%YAML 1.1
%TAG !u! tag:unity3d.com,2011:
--- !u!1 &3384420085625438601
GameObject:
  m_ObjectHideFlags: 0
  m_CorrespondingSourceObject: {fileID: 0}
  m_PrefabInstance: {fileID: 0}
  m_PrefabAsset: {fileID: 0}
  serializedVersion: 6
  m_Component:
  - component: {fileID: 845540602989012138}
  m_Layer: 0
  m_Name: Wall
  m_TagString: Untagged
  m_Icon: {fileID: 0}
  m_NavMeshLayer: 0
  m_StaticEditorFlags: 0
  m_IsActive: 1
--- !u!4 &845540602989012138
Transform:
  m_ObjectHideFlags: 0
  m_CorrespondingSourceObject: {fileID: 0}
  m_PrefabInstance: {fileID: 0}
  m_PrefabAsset: {fileID: 0}
  m_GameObject: {fileID: 3384420085625438601}
  m_LocalRotation: {x: 0, y: 0, z: 0, w: 1}
  m_LocalPosition: {x: 17.38, y: 0, z: 1.21}
  m_LocalScale: {x: 1, y: 1, z: 1}
  m_Children:
  - {fileID: 2882040000045158493}
  m_Father: {fileID: 0}
  m_RootOrder: 0
  m_LocalEulerAnglesHint: {x: 0, y: 0, z: 0}
--- !u!1001 &4065548031740269404
PrefabInstance:
  m_ObjectHideFlags: 0
  serializedVersion: 2
  m_Modification:
    m_TransformParent: {fileID: 845540602989012138}
    m_Modifications:
    - target: {fileID: 2275631149302825729, guid: cc55393986bef4d3a8307ae8b90d9e96,
        type: 3}
      propertyPath: m_LocalPosition.x
      value: -6.822999
      objectReference: {fileID: 0}
    - target: {fileID: 2275631149302825729, guid: cc55393986bef4d3a8307ae8b90d9e96,
        type: 3}
      propertyPath: m_LocalPosition.y
      value: -0.35
      objectReference: {fileID: 0}
    - target: {fileID: 2275631149302825729, guid: cc55393986bef4d3a8307ae8b90d9e96,
        type: 3}
      propertyPath: m_LocalPosition.z
      value: -4.9230003
      objectReference: {fileID: 0}
    - target: {fileID: 2275631149302825729, guid: cc55393986bef4d3a8307ae8b90d9e96,
        type: 3}
      propertyPath: m_LocalRotation.x
      value: -0
      objectReference: {fileID: 0}
    - target: {fileID: 2275631149302825729, guid: cc55393986bef4d3a8307ae8b90d9e96,
        type: 3}
      propertyPath: m_LocalRotation.y
      value: -0.7071068
      objectReference: {fileID: 0}
    - target: {fileID: 2275631149302825729, guid: cc55393986bef4d3a8307ae8b90d9e96,
        type: 3}
      propertyPath: m_LocalRotation.z
      value: -0
      objectReference: {fileID: 0}
    - target: {fileID: 2275631149302825729, guid: cc55393986bef4d3a8307ae8b90d9e96,
        type: 3}
      propertyPath: m_LocalRotation.w
      value: 0.7071068
      objectReference: {fileID: 0}
    - target: {fileID: 2275631149302825729, guid: cc55393986bef4d3a8307ae8b90d9e96,
        type: 3}
      propertyPath: m_RootOrder
      value: 0
      objectReference: {fileID: 0}
    - target: {fileID: 2275631149302825729, guid: cc55393986bef4d3a8307ae8b90d9e96,
        type: 3}
      propertyPath: m_LocalEulerAnglesHint.x
      value: 0
      objectReference: {fileID: 0}
    - target: {fileID: 2275631149302825729, guid: cc55393986bef4d3a8307ae8b90d9e96,
        type: 3}
      propertyPath: m_LocalEulerAnglesHint.y
      value: -90
      objectReference: {fileID: 0}
    - target: {fileID: 2275631149302825729, guid: cc55393986bef4d3a8307ae8b90d9e96,
        type: 3}
      propertyPath: m_LocalEulerAnglesHint.z
      value: 0
      objectReference: {fileID: 0}
    - target: {fileID: 6421693393088177703, guid: cc55393986bef4d3a8307ae8b90d9e96,
        type: 3}
      propertyPath: m_Name
      value: Wall12
      objectReference: {fileID: 0}
    m_RemovedComponents: []
  m_SourcePrefab: {fileID: 100100000, guid: cc55393986bef4d3a8307ae8b90d9e96, type: 3}
--- !u!4 &2882040000045158493 stripped
Transform:
  m_CorrespondingSourceObject: {fileID: 2275631149302825729, guid: cc55393986bef4d3a8307ae8b90d9e96,
    type: 3}
  m_PrefabInstance: {fileID: 4065548031740269404}
  m_PrefabAsset: {fileID: 0}
